<svg xmlns="http://www.w3.org/2000/svg" xmlns:xlink="http://www.w3.org/1999/xlink" width="22" height="13" viewBox="0 0 22 13">
    <defs>
        <path id="a" d="M15.28 7.747v2.29c0 1.24-1.207 2.247-2.697 2.247H2.696C1.207 12.284 0 11.278 0 10.037v-7.49C0 1.306 1.207.3 2.696.3h9.887c1.49 0 2.697 1.006 2.697 2.247v2.29l4.87-2.9c.595-.354 1.421 0 1.421.61v7.49c0 .609-.826.963-1.42.61l-4.871-2.9zM2.696 1.797c-.496 0-.898.336-.898.75v7.49c0 .413.402.749.898.749h9.887c.497 0 .9-.336.9-.75v-7.49c0-.413-.403-.748-.9-.748H2.696zm13.231 4.495l3.847 2.29v-4.58l-3.847 2.29z"/>
    </defs>
    <g fill="none" fill-rule="evenodd">
        <mask id="b" fill="#fff">
            <use xlink:href="#a"/>
        </mask>
        <use fill="#000" fill-rule="nonzero" xlink:href="#a"/>
        <g fill="#666" mask="url(#b)">
            <path d="M0-2.696h22v18H0z"/>
        </g>
    </g>
</svg>
